Chapter 2 Data Cleaning | Idiographic prediction of loneliness and procrastination
…
Here’s the result

ipcs_times

## # A tibble: 23,615 x 8
##    SID   Date        Hour Minute   Day HourBlock Full_Date        all_beeps
##    <chr> <date>     <dbl> <chr>  <dbl>     <dbl> <chr>                <dbl>
##  1 01    2018-10-22    15 23         0         1 2018-10-22 15:23         1
##  2 01    2018-10-22    19 00         0         2 2018-10-22 19:00         2
##  3 01    2018-10-22    23 23         0         3 2018-10-22 23:23         3
##  4 01    2018-10-22    23 25         0         3 2018-10-22 23:25         4
##  5 01    2018-10-23     3 00         0         4 2018-10-23 3:00          5
##  6 01    2018-10-23     7 00         0         5 2018-10-23 7:00          6
##  7 01    2018-10-23    11 00         0         6 2018-10-23 11:00         7
##  8 01    2018-10-23    17 50         1         1 2018-10-23 17:50         8
##  9 01    2018-10-23    19 39         1         2 2018-10-23 19:39         9
## 10 01    2018-10-23    23 00         1         3 2018-10-23 23:00        10
## # … with 23,605 more rows
…
# run MI
bfi_mi <- data.frame(unclass(bfi_wide %>% select(-Full_Date)))
set.seed(5)
bfi_mi <- amelia(bfi_mi, m = 1, ts = "all_beeps", cs = "SID")$imputations[[1]] %>%
  as_tibble() %>%
  full_join(bfi_wide %>% select(SID, Full_Date, all_beeps)) %>%
  select(-all_beeps)

## -- Imputation 1 --
## 
##   1  2  3  4  5  6  7  8  9 10 11 12 13 14 15 16 17 18 19

bfi_mi

## # A tibble: 8,672 x 17
##    SID   agreeableness_Co… agreeableness_Re… agreeableness_T… conscientiousnes… conscientiousnes… conscientiousnes…
##    <chr>             <dbl>             <dbl>            <dbl>             <dbl>             <dbl>             <dbl>
##  1 01                 1.45              1                3                 4                 4                 4.79
##  2 01                 2.43              3                2                 1                 1                 3.68
##  3 01                 2.86              1.5              1.70              1.14              3.03              3   
##  4 01                 3.39              2                4                 4.33              4                 4   
##  5 01                 5                 2                3.85              3.04              3                 3.04
##  6 01                 4                 4.59             4                 1.91              5                 5   
##  7 01                 2                 1                3.88              2.18              3                 1.61
##  8 01                 2                 6.30             2                 4                 2.96              5   
##  9 01                 3.26              2.80             3                 3.17              2                 2   
## 10 01                 4.5               3.23             2.39              3.5               1.63              3.09
## # … with 8,662 more rows, and 10 more variables: extraversion_Assertiveness <dbl>,
## #   extraversion_Energy.Level <dbl>, extraversion_Sociability <dbl>, neuroticism_Anxiety <dbl>,
## #   neuroticism_Depression <dbl>, neuroticism_Emotional.Volatility <dbl>, openness_Aesthetic.Sensitivity <dbl>,
## #   openness_Creative.Imagination <dbl>, openness_Intellectual.Curiosity <dbl>, Full_Date <chr>

Personality data:

bfi_mi

## # A tibble: 8,672 x 17
##    SID   agreeableness_Co… agreeableness_Re… agreeableness_T… conscientiousnes… conscientiousnes… conscientiousnes…
##    <chr>             <dbl>             <dbl>            <dbl>             <dbl>             <dbl>             <dbl>
##  1 01                 1.45              1                3                 4                 4                 4.79
##  2 01                 2.43              3                2                 1                 1                 3.68
##  3 01                 2.86              1.5              1.70              1.14              3.03              3   
##  4 01                 3.39              2                4                 4.33              4                 4   
##  5 01                 5                 2                3.85              3.04              3                 3.04
##  6 01                 4                 4.59             4                 1.91              5                 5   
##  7 01                 2                 1                3.88              2.18              3                 1.61
##  8 01                 2                 6.30             2                 4                 2.96              5   
##  9 01                 3.26              2.80             3                 3.17              2                 2   
## 10 01                 4.5               3.23             2.39              3.5               1.63              3.09
## # … with 8,662 more rows, and 10 more variables: extraversion_Assertiveness <dbl>,
## #   extraversion_Energy.Level <dbl>, extraversion_Sociability <dbl>, neuroticism_Anxiety <dbl>,
## #   neuroticism_Depression <dbl>, neuroticism_Emotional.Volatility <dbl>, openness_Aesthetic.Sensitivity <dbl>,
## #   openness_Creative.Imagination <dbl>, openness_Intellectual.Curiosity <dbl>, Full_Date <chr>
…
features <- emo %>%
  full_join(sit) %>%
  full_join(ds8) %>%
  select(SID, category, trait, facet, itemname, Date, Hour, Minute, Day, HourBlock, value = responses2) %>%
  mutate(Minute = str_remove_all(Minute, ".csv"),
         Minute = ifelse(as.numeric(Minute) < 10, sprintf("0%s", Minute), Minute),
         Full_Date = sprintf("%s %s:%s", as.character(Date), Hour, Minute),
         value = as.numeric(value)) %>%
  group_by(SID, category, trait, facet, Full_Date) %>% 
  summarize(value = max(value)) %>%
  ungroup()

features

## # A tibble: 312,010 x 6
##    SID   category trait  facet  Full_Date        value
##    <chr> <chr>    <chr>  <chr>  <chr>            <dbl>
##  1 01    Affect   afraid afraid 2018-10-22 15:23     2
##  2 01    Affect   afraid afraid 2018-10-22 23:23     3
##  3 01    Affect   afraid afraid 2018-10-22 23:25     3
##  4 01    Affect   afraid afraid 2018-10-23 17:50     4
##  5 01    Affect   afraid afraid 2018-10-23 19:39     2
##  6 01    Affect   afraid afraid 2018-10-24 0:00      2
##  7 01    Affect   afraid afraid 2018-10-24 11:44     3
##  8 01    Affect   afraid afraid 2018-10-24 15:37     2
##  9 01    Affect   afraid afraid 2018-10-24 20:46     3
## 10 01    Affect   afraid afraid 2018-10-25 21:07     4
## # … with 312,000 more rows
…
  ## keep key variables and reshape
  select(SID, Full_Date, Mon:night, linear:cos2p) %>%
  pivot_longer(cols = c(-SID, -Full_Date)
               , names_to = "trait"
               , values_to = "value") %>%
  mutate(category = "time"
         , facet = trait)

time_features

## # A tibble: 413,928 x 6
##    SID   Full_Date        trait   value category facet  
##    <chr> <chr>            <chr>   <dbl> <chr>    <chr>  
##  1 01    2018-10-22 15:23 Mon         1 time     Mon    
##  2 01    2018-10-22 15:23 Tue         0 time     Tue    
##  3 01    2018-10-22 15:23 Wed         0 time     Wed    
##  4 01    2018-10-22 15:23 Thu         0 time     Thu    
##  5 01    2018-10-22 15:23 Fri         0 time     Fri    
##  6 01    2018-10-22 15:23 Sat         0 time     Sat    
##  7 01    2018-10-22 15:23 Sun         0 time     Sun    
##  8 01    2018-10-22 15:23 morning     0 time     morning
##  9 01    2018-10-22 15:23 midday      1 time     midday 
## 10 01    2018-10-22 15:23 evening     1 time     evening
## # … with 413,918 more rows

2.2.5 Combine Features

Now, let’s bring the personality, affect/situation/DIAMONDS, and timing features together.

all_features <- bfi_long %>%
  full_join(features) %>%
  full_join(ipcs_times %>% select(SID, Full_Date)) %>%
  full_join(time_features) %>%
  arrange(SID, category, trait, facet, Full_Date)
all_features

## # A tibble: 871,011 x 6
##    SID   Full_Date        trait  facet  value category
##    <chr> <chr>            <chr>  <chr>  <dbl> <chr>   
##  1 01    2018-10-22 15:23 afraid afraid     2 Affect  
##  2 01    2018-10-22 23:23 afraid afraid     3 Affect  
##  3 01    2018-10-22 23:25 afraid afraid     3 Affect  
##  4 01    2018-10-23 17:50 afraid afraid     4 Affect  
##  5 01    2018-10-23 19:39 afraid afraid     2 Affect  
##  6 01    2018-10-24 0:00  afraid afraid     2 Affect  
##  7 01    2018-10-24 11:44 afraid afraid     3 Affect  
##  8 01    2018-10-24 15:37 afraid afraid     2 Affect  
##  9 01    2018-10-24 20:46 afraid afraid     3 Affect  
## 10 01    2018-10-25 21:07 afraid afraid     4 Affect  
## # … with 871,001 more rows
…
