Idiographic prediction of loneliness and procrastination
…
# function for reading in sheets
read_fun <- function(x){
  sprintf("%s/01-codebooks/codebook.xlsx", res_path) %>% read_xlsx(., sheet = x)
}

# read in sheets and index source
codebook <- tibble(
  sheet = sheets,
  codebook = map(sheet, read_fun)
)

ipcs_codebook <- (codebook %>% filter(sheet == "codebook"))$codebook[[1]]
ipcs_codebook

## # A tibble: 98 x 12
##    category trait facet  itemname  old_desc scale  orig_scale_num description orig_itemname reverse_code long_trait
##    <chr>    <chr> <chr>  <chr>     <chr>    <chr>  <chr>          <chr>       <chr>         <chr>        <chr>     
##  1 BFI-2    E     scblty Sociabil… Was out… Liker… 1.             Is outgoin… E1            no           Extravers…
##  2 BFI-2    E     scblty Sociabil… Was tal… Liker… 46.            Is talkati… E2            no           Extravers…
##  3 BFI-2    E     scblty Sociabil… Tended … Liker… 16r.           Tends to b… E3            yes          Extravers…
##  4 BFI-2    E     scblty Sociabil… Was som… Liker… 31r.           Is sometim… E4            yes          Extravers…
##  5 BFI-2    E     assert Assertiv… Had an … Liker… 6.             Has an ass… E5            no           Extravers…
##  6 BFI-2    E     assert Assertiv… Was dom… Liker… 21.            Is dominan… E6            no           Extravers…
##  7 BFI-2    E     assert Assertiv… Found i… Liker… 36r.           Finds it h… E7            yes          Extravers…
##  8 BFI-2    E     assert Assertiv… Preferr… Liker… 51r.           Prefers to… E8            yes          Extravers…
##  9 BFI-2    E     enerL… Energy L… Was ful… Liker… 41.            Is full of… E9            no           Extravers…
## 10 BFI-2    E     enerL… Energy L… Showed … Liker… 56.            Shows a lo… E10           no           Extravers…
## # … with 88 more rows, and 1 more variable: long_name <chr>
…
ftrs <- codebook$codebook[[3]]

1.3.1 Measures

Participants responded to a large battery of trait and ESM measures as part of the larger study. The present study focuses on ESM measures whose use we preregistered. A full list of the collected measures for the study can be found in supplementary codebooks in the online materials on the OSF and GitHub. The measures collected at each wave were identical. ESM measures were used to estimate idiographic personality prediction models.

1.3.1.1 ESM Measures

1.3.1.1.1 Personality

Personality was assessed using the full BFI-2 (Soto & John, 2017). The scale was administered using a planned missing data design (Revelle et al., 2016). We have previously demonstrated both the between- and within-person construct validity of assessing personality using planned missing designs using the BFI-2 (https://osf.io/pj9sy/). The planned missingness was done within each Big Five trait separately, with three items from each trait included at each timepoint (75% missingness). Each item was answered relative to what a participant was just doing on a 5-point Likert-like scale from 1 “disagree strongly” to 5 “agree strongly.” Items for each person at each assessment were determined by pulling 3 numbers (1 to 12) from a uniform distribution. The order of the resulting 15 items were then randomized before being displayed to participants.

ipcs_codebook %>% filter(category == "BFI-2")

## # A tibble: 60 x 12
##    category trait facet  itemname  old_desc scale  orig_scale_num description orig_itemname reverse_code long_trait
##    <chr>    <chr> <chr>  <chr>     <chr>    <chr>  <chr>          <chr>       <chr>         <chr>        <chr>     
##  1 BFI-2    E     scblty Sociabil… Was out… Liker… 1.             Is outgoin… E1            no           Extravers…
##  2 BFI-2    E     scblty Sociabil… Was tal… Liker… 46.            Is talkati… E2            no           Extravers…
##  3 BFI-2    E     scblty Sociabil… Tended … Liker… 16r.           Tends to b… E3            yes          Extravers…
##  4 BFI-2    E     scblty Sociabil… Was som… Liker… 31r.           Is sometim… E4            yes          Extravers…
##  5 BFI-2    E     assert Assertiv… Had an … Liker… 6.             Has an ass… E5            no           Extravers…
##  6 BFI-2    E     assert Assertiv… Was dom… Liker… 21.            Is dominan… E6            no           Extravers…
##  7 BFI-2    E     assert Assertiv… Found i… Liker… 36r.           Finds it h… E7            yes          Extravers…
##  8 BFI-2    E     assert Assertiv… Preferr… Liker… 51r.           Prefers to… E8            yes          Extravers…
##  9 BFI-2    E     enerL… Energy L… Was ful… Liker… 41.            Is full of… E9            no           Extravers…
## 10 BFI-2    E     enerL… Energy L… Showed … Liker… 56.            Shows a lo… E10           no           Extravers…
## # … with 50 more rows, and 1 more variable: long_name <chr>
…
